C51 COMPILER V9.53.0.0   PORT_MATCH_ISR                                                    07/16/2019 14:35:44 PAGE 1   


C51 COMPILER V9.53.0.0, COMPILATION OF MODULE PORT_MATCH_ISR
OBJECT MODULE PLACED IN .\EFM8LB\Port_Match_ISR.OBJ
COMPILER INVOKED BY: c:\SiliconLabs\SimplicityStudio\v4\developer\toolchains\keil_8051\9.53\BIN\C51.exe D:\Luxshare_OET\
                    -公司專案_FW\SFP28\FW\SFP28_Gen2\V0300\OET_SFP28_SR_Gen2_Macom\EFM8LB\Port_Match_ISR.c OMF2 SMALL DEBUG OBJECTEXTEND ROM(
                    -LARGE) WARNINGLEVEL(2) FLOATFUZZY(3) OPTIMIZE(8,SPEED) DEFINE(DEBUG=1) INTVECTOR(0X0000) INTPROMOTE INCDIR(D:\Luxshare_O
                    -ET\公司專案_FW\SFP28\FW\SFP28_Gen2\V0300\OET_SFP28_SR_Gen2_Macom\inc;C:/SiliconLabs/SimplicityStudio/v4/developer/sdks/8
                    -051/v4.0.7//Device/shared/si8051base;C:/SiliconLabs/SimplicityStudio/v4/developer/sdks/8051/v4.0.7//Device/EFM8LB1/inc) 
                    -PRINT(.\EFM8LB\Port_Match_ISR.lst) COND PAGEWIDTH(120) PAGELENGTH(65) OBJECT(.\EFM8LB\Port_Match_ISR.OBJ)

line level    source

   1          /*
   2           * Port_Match_ISR.c
   3           *
   4           *  Created on: 2017年3月8日
   5           *      Author: 100476
   6           */
   7          
   8          #include <SI_EFM8LB1_Register_Enums.h>
   9          
  10          SI_SBIT(S2, SFR_P1, 1);
  11          
  12          //-----------------------------------------------------------------------------
  13          // PMATCH_ISR
  14          //-----------------------------------------------------------------------------
  15          //
  16          // PMATCH ISR Content goes here. Remember to clear flag bits:
  17          //
  18          // The Port Match interrupt occurs whenever (Pn & PnMASK) != (PnMAT & PnMASK).
  19          // We must disable the interrupt and wait until the switches are released in
  20          // main, or else the interrupt will trigger multiple times.  It is generally
  21          // not good practice to sit in an ISR for int32_t periods of time.
  22          //
  23          //-----------------------------------------------------------------------------
  24          SI_INTERRUPT (PMATCH_ISR, PMATCH_IRQn)
  25          {
  26   1              /*
  27   1         // If the Port Match event occurred on S1, toggle LED_GREEN.
  28   1         if(S1 == 0)
  29   1         {
  30   1                LED_GREEN = !LED_GREEN;
  31   1         }
  32   1      
  33   1         // If the Port Match event occurred on S2, toggle LED_BLUE
  34   1         if(S2 == 0)
  35   1         {
  36   1                LED_BLUE = !LED_BLUE;
  37   1         }
  38   1      
  39   1         SFRPAGE = LEGACY_PAGE;              // EIE1 on SFRPAGE 0x00
  40   1         EIE1 &= ~0x02;                      // Disable Port Match interrupts to
  41   1                                                                                 // prevent multiple interrupts from
  42   1                                                                                 // occurring while the switches are
  43   1                                                                                 // pressed
  44   1      
  45   1                                                                                  */
  46   1      }


MODULE INFORMATION:   STATIC OVERLAYABLE
   CODE SIZE        =      4    ----
   CONSTANT SIZE    =   ----    ----
C51 COMPILER V9.53.0.0   PORT_MATCH_ISR                                                    07/16/2019 14:35:44 PAGE 2   

   XDATA SIZE       =   ----    ----
   PDATA SIZE       =   ----    ----
   DATA SIZE        =   ----    ----
   IDATA SIZE       =   ----    ----
   BIT SIZE         =   ----    ----
   EDATA SIZE       =   ----    ----
   HDATA SIZE       =   ----    ----
   XDATA CONST SIZE =   ----    ----
   FAR CONST SIZE   =   ----    ----
END OF MODULE INFORMATION.


C51 COMPILATION COMPLETE.  0 WARNING(S),  0 ERROR(S)
